…
# Resultatet av frågan till API:et kommer i en komplicerad liststruktur, vilket
# kräver en del omstrukturering av data med hjälp av paketen purrr och tidyr:

ltrans <- transpose(lresult$values)

df <- map_df(.x = ltrans, .f = simplify)

df <- df %>%
  unnest(values) %>%
  mutate(values = map(values, ~flatten(.x) %>% bind_rows() ) ) %>%
  unnest(values)

df
# # A tibble: 40 x 7
#    kpi    municipality period count gender status value
#    <chr>  <chr>         <int> <int> <chr>  <chr>  <dbl>
#  1 N07402 1280           1998     1 T      ""      2.75
#  2 N07402 1281           1998     1 T      ""      0   
#  3 N07402 1280           1999     1 T      ""     14.8 
#  4 N07402 1281           1999     1 T      ""      1.02
#  5 N07402 1280           2000     1 T      ""     17.7 
#  6 N07402 1281           2000     1 T      ""      1.01
#  7 N07402 1280           2001     1 T      ""     17.9 
#  8 N07402 1281           2001     1 T      ""      2.01
#  9 N07402 1280           2002     1 T      ""     19.2 
# 10 N07402 1281           2002     1 T      ""      7.97
# # ... with 30 more rows
```
…
I GET-anropet till Kolada måste vi ange ett unikt skol-id. Vi laddar in alla unika skolid:n i en dataframe enligt nedan:

```{r}
# Hämta lista på skol-id

url <- "http://api.kolada.se/v2/ou?title=skola"
lresult <- content(GET(url))

ltrans <- transpose(lresult$values)

dfobjekt <- map_df(.x = ltrans, .f = simplify)

dfobjekt

# # A tibble: 4,911 x 3
#    id            municipality title                
#    <chr>         <chr>        <chr>                
#  1 V15E011400101 0114         Runby skola          
#  2 V15E011400201 0114         Väsby skola          
#  3 V15E011400805 0114         Grimsta skola        
#  4 V15E011401201 0114         Bollstanäs skola     
#  5 V15E011401601 0114         Breddenskolan        
#  6 V15E011402801 0114         Södervikskolan       
#  7 V15E011402901 0114         Odenskolan           
#  8 V15E011403001 0114         Frestaskolan         
#  9 V15E011403101 0114         Vikskolan            
# 10 V15E011403501 0114         Resursskolan Magneten
# # ... with 4,901 more rows
```
…
