…
Resultatet ser ganska ok ut, men befolkningen för varje årtal ligger i en egen kolumn. Jag vill helst att alla årtal ska ligga i en egen kolumn. Paketet tidyr har en funktion som heter “gather” som kan användas för att omformatera tabellen som jag vill ha den. Jag använder även funktionern “str_remove_all” i stringr-paketet för att ta bort alla förekomster av “Folkmangd_” i aar- kolumnen, för att därefter ändra format från character till intiger. Jag vill dessutom att kommunkoderna och kommunnamnen ska stå i varsin kolumn. Detta gör jag med hjälp av “sepatate”-funktionen i tidyr.

  df %>%
    gather(aar, value, folkmangd_2014:folkmangd_2017) %>%
    mutate(aar = str_remove_all(aar, "folkmangd_")) %>%
    mutate(aar = as.integer(aar)) %>%
    separate(
      region,
      c("kom_kod", "kom_namn"),
      sep = " ",
      extra = "merge",
      remove = TRUE
    )

## # A tibble: 480 x 7
##    kom_kod kom_namn   civilstand alder    kon       aar value
##    <chr>   <chr>      <chr>      <chr>    <chr>   <int> <dbl>
##  1 0561    Åtvidaberg ogifta     0-4 år   män      2014   273
##  2 0561    Åtvidaberg ogifta     0-4 år   kvinnor  2014   275
##  3 0561    Åtvidaberg ogifta     5-14 år  män      2014   618
##  4 0561    Åtvidaberg ogifta     5-14 år  kvinnor  2014   641
##  5 0561    Åtvidaberg ogifta     15-24 år män      2014   696
##  6 0561    Åtvidaberg ogifta     15-24 år kvinnor  2014   635
##  7 0561    Åtvidaberg ogifta     25-34 år män      2014   397
##  8 0561    Åtvidaberg ogifta     25-34 år kvinnor  2014   277
##  9 0561    Åtvidaberg ogifta     35-44 år män      2014   320
## 10 0561    Åtvidaberg ogifta     35-44 år kvinnor  2014   227
## # ... with 470 more rows
…
  vardevar <- length(bodytxt[["query"]][[index]][["selection"]][["values"]]) - 1
  
  df %>% 
    gather(aar, value, (ncol(.)-vardevar):ncol(.)) %>%
        mutate(aar = str_remove_all(aar, "folkmangd_")) %>%
    mutate(aar = as.integer(aar)) %>%
    separate(
      region,
      c("kom_kod", "kom_namn"),
      sep = " ",
      extra = "merge",
      remove = TRUE
    )

## # A tibble: 480 x 7
##    kom_kod kom_namn   civilstand alder    kon       aar value
##    <chr>   <chr>      <chr>      <chr>    <chr>   <int> <dbl>
##  1 0561    Åtvidaberg ogifta     0-4 år   män      2014   273
##  2 0561    Åtvidaberg ogifta     0-4 år   kvinnor  2014   275
##  3 0561    Åtvidaberg ogifta     5-14 år  män      2014   618
##  4 0561    Åtvidaberg ogifta     5-14 år  kvinnor  2014   641
##  5 0561    Åtvidaberg ogifta     15-24 år män      2014   696
##  6 0561    Åtvidaberg ogifta     15-24 år kvinnor  2014   635
##  7 0561    Åtvidaberg ogifta     25-34 år män      2014   397
##  8 0561    Åtvidaberg ogifta     25-34 år kvinnor  2014   277
##  9 0561    Åtvidaberg ogifta     35-44 år män      2014   320
## 10 0561    Åtvidaberg ogifta     35-44 år kvinnor  2014   227
## # ... with 470 more rows
