…
dfanswer <- as_data_frame(lanswer[["variables"]])

head(dfanswer)
# # A tibble: 4 x 6
#   id      text             elimination time  values                 map       
#   <chr>   <chr>            <lgl>       <lgl> <list>                 <chr>     
# 1 KØN     sex              TRUE        FALSE <data.frame [2 x 2]>   NA        
# 2 ALDER   age              TRUE        FALSE <data.frame [126 x 2]> NA        
# 3 FODLAND country of birth TRUE        FALSE <data.frame [239 x 2]> Verden_dk2
# 4 Tid     time             FALSE       TRUE  <data.frame [29 x 2]>  NA   

# Notera att kolumnen "values" har en listvariabel som innehåller en dataframe. Vi plockar fram dessa dataframes med hjälp av purrr-paketets unnest-funktion:

unnest(dfanswer)
# # A tibble: 396 x 7
#    id    text  elimination time  map   id1   text1  
#    <chr> <chr> <lgl>       <lgl> <chr> <chr> <chr>  
#  1 KØN   sex   TRUE        FALSE NA    M     Men    
#  2 KØN   sex   TRUE        FALSE NA    K     Women  
#  3 ALDER age   TRUE        FALSE NA    0     0 years
#  4 ALDER age   TRUE        FALSE NA    1     1 year 
#  5 ALDER age   TRUE        FALSE NA    2     2 years
#  6 ALDER age   TRUE        FALSE NA    3     3 years
#  7 ALDER age   TRUE        FALSE NA    4     4 years
#  8 ALDER age   TRUE        FALSE NA    5     5 years
#  9 ALDER age   TRUE        FALSE NA    6     6 years
# 10 ALDER age   TRUE        FALSE NA    7     7 years
# # ... with 386 more rows
```
…
