…
head(dfanswer)
# # A tibble: 5 x 6
#   id       text                       elimination time  map                       values               
#   <chr>    <chr>                      <lgl>       <lgl> <chr>                     <list>               
# 1 BOPKOMSV municipality of residence  TRUE        FALSE oeresund_municipality2007 <data.frame [34 x 2]>
# 2 ARBKOMSV working place municipality TRUE        FALSE oeresund_municipality2007 <data.frame [47 x 2]>
# 3 TYPESV   type                       TRUE        FALSE NA                        <data.frame [2 x 2]> 
# 4 KONSV    sex                        TRUE        FALSE NA                        <data.frame [2 x 2]> 
# 5 Tid      time                       FALSE       TRUE  NA                        <data.frame [19 x 2]>  

# Notera att kolumnen "values" har en listvariabel som innehåller en dataframe. Vi plockar fram dessa dataframes med hjälp av purrr-paketets unnest-funktion:

unnest(dfanswer)

# # A tibble: 104 x 7
#    id       text                      elimination time  map                       id1   text1              
#    <chr>    <chr>                     <lgl>       <lgl> <chr>                     <chr> <chr>              
#  1 BOPKOMSV municipality of residence TRUE        FALSE oeresund_municipality2007 1198  1198 Rest of Sweden
#  2 BOPKOMSV municipality of residence TRUE        FALSE oeresund_municipality2007 1214  1214 Svalöv        
#  3 BOPKOMSV municipality of residence TRUE        FALSE oeresund_municipality2007 1230  1230 Staffanstorp  
#  4 BOPKOMSV municipality of residence TRUE        FALSE oeresund_municipality2007 1231  1231 Burlöv        
#  5 BOPKOMSV municipality of residence TRUE        FALSE oeresund_municipality2007 1233  1233 Vellinge      
#  6 BOPKOMSV municipality of residence TRUE        FALSE oeresund_municipality2007 1256  1256 Östra Göinge  
#  7 BOPKOMSV municipality of residence TRUE        FALSE oeresund_municipality2007 1257  1257 Örkelljunga   
#  8 BOPKOMSV municipality of residence TRUE        FALSE oeresund_municipality2007 1260  1260 Bjuv          
#  9 BOPKOMSV municipality of residence TRUE        FALSE oeresund_municipality2007 1261  1261 Kävlinge      
# 10 BOPKOMSV municipality of residence TRUE        FALSE oeresund_municipality2007 1262  1262 Lomma         
# # ... with 94 more rows
…
stop_for_status(req)

dfanswer <- as_data_frame(content(req))

dfanswer <- separate(dfanswer, col = 1, sep = "\t", into = unlist(strsplit(names(dfanswer), split = "\t")))

# Värdevariabeln (INHOLD) är av typ character och inte av typ integer. Det fixar vi med:

dfanswer$INDHOLD <- as.integer(dfanswer$INDHOLD)

dfanswer

# # A tibble: 47 x 5
#    BOPKOMSV   ARBKOMSV           TYPESV    TID   INDHOLD
#    <chr>      <chr>              <chr>     <chr>   <int>
#  1 1280 Malmö 96 Rest of Denmark Commuters 2015        0
#  2 1280 Malmö 101 Copenhagen     Commuters 2015     3951
#  3 1280 Malmö 147 Frederiksberg  Commuters 2015      330
#  4 1280 Malmö 151 Ballerup       Commuters 2015      261
#  5 1280 Malmö 153 Brøndby        Commuters 2015      194
#  6 1280 Malmö 155 Dragør         Commuters 2015       30
#  7 1280 Malmö 157 Gentofte       Commuters 2015      199
#  8 1280 Malmö 159 Gladsaxe       Commuters 2015      359
#  9 1280 Malmö 161 Glostrup       Commuters 2015      135
# 10 1280 Malmö 163 Herlev         Commuters 2015      114
# # ... with 37 more rows
